^D:\GOOGLE 雲端硬碟\中興機械所205研究室\機械所課程\碩二上學期\軟性計算與智慧\HW3_PSO\PSO\STDAFX.CPP
D:\GOOGLE 雲端硬碟\中興機械所205研究室\機械所課程\碩二上學期\軟性計算與智慧\HW3_PSO\PSO\STDAFX.H
^D:\GOOGLE 雲端硬碟\中興機械所205研究室\機械所課程\碩二上學期\軟性計算與智慧\HW3_PSO\PSO\PSO(VS_2012).CPP
D:\GOOGLE 雲端硬碟\中興機械所205研究室\機械所課程\碩二上學期\軟性計算與智慧\HW3_PSO\PSO\STDAFX.H
D:\PROGRAM FILES (X86)\MICROSOFT VISUAL STUDIO 11.0\VC\INCLUDE\IOSTREAM
D:\PROGRAM FILES (X86)\MICROSOFT VISUAL STUDIO 11.0\VC\INCLUDE\ISTREAM
D:\PROGRAM FILES (X86)\MICROSOFT VISUAL STUDIO 11.0\VC\INCLUDE\OSTREAM
D:\PROGRAM FILES (X86)\MICROSOFT VISUAL STUDIO 11.0\VC\INCLUDE\IOS
D:\PROGRAM FILES (X86)\MICROSOFT VISUAL STUDIO 11.0\VC\INCLUDE\XLOCNUM
D:\PROGRAM FILES (X86)\MICROSOFT VISUAL STUDIO 11.0\VC\INCLUDE\CLIMITS
D:\PROGRAM FILES (X86)\MICROSOFT VISUAL STUDIO 11.0\VC\INCLUDE\YVALS.H
D:\PROGRAM FILES (X86)\MICROSOFT VISUAL STUDIO 11.0\VC\INCLUDE\XKEYCHECK.H
D:\PROGRAM FILES (X86)\MICROSOFT VISUAL STUDIO 11.0\VC\INCLUDE\CRTDEFS.H
D:\PROGRAM FILES (X86)\MICROSOFT VISUAL STUDIO 11.0\VC\INCLUDE\SAL.H
D:\PROGRAM FILES (X86)\MICROSOFT VISUAL STUDIO 11.0\VC\INCLUDE\CONCURRENCYSAL.H
D:\PROGRAM FILES (X86)\MICROSOFT VISUAL STUDIO 11.0\VC\INCLUDE\VADEFS.H
D:\PROGRAM FILES (X86)\MICROSOFT VISUAL STUDIO 11.0\VC\INCLUDE\USE_ANSI.H
D:\PROGRAM FILES (X86)\MICROSOFT VISUAL STUDIO 11.0\VC\INCLUDE\LIMITS.H
D:\PROGRAM FILES (X86)\MICROSOFT VISUAL STUDIO 11.0\VC\INCLUDE\CMATH
D:\PROGRAM FILES (X86)\MICROSOFT VISUAL STUDIO 11.0\VC\INCLUDE\MATH.H
D:\PROGRAM FILES (X86)\MICROSOFT VISUAL STUDIO 11.0\VC\INCLUDE\XTGMATH.H
D:\PROGRAM FILES (X86)\MICROSOFT VISUAL STUDIO 11.0\VC\INCLUDE\XTR1COMMON
D:\PROGRAM FILES (X86)\MICROSOFT VISUAL STUDIO 11.0\VC\INCLUDE\CSTDIO
D:\PROGRAM FILES (X86)\MICROSOFT VISUAL STUDIO 11.0\VC\INCLUDE\STDIO.H
D:\PROGRAM FILES (X86)\MICROSOFT VISUAL STUDIO 11.0\VC\INCLUDE\SWPRINTF.INL
D:\PROGRAM FILES (X86)\MICROSOFT VISUAL STUDIO 11.0\VC\INCLUDE\CSTDLIB
D:\PROGRAM FILES (X86)\MICROSOFT VISUAL STUDIO 11.0\VC\INCLUDE\STDLIB.H
D:\PROGRAM FILES (X86)\MICROSOFT VISUAL STUDIO 11.0\VC\INCLUDE\STREAMBUF
D:\PROGRAM FILES (X86)\MICROSOFT VISUAL STUDIO 11.0\VC\INCLUDE\XIOSBASE
D:\PROGRAM FILES (X86)\MICROSOFT VISUAL STUDIO 11.0\VC\INCLUDE\XLOCALE
D:\PROGRAM FILES (X86)\MICROSOFT VISUAL STUDIO 11.0\VC\INCLUDE\CSTRING
D:\PROGRAM FILES (X86)\MICROSOFT VISUAL STUDIO 11.0\VC\INCLUDE\STRING.H
D:\PROGRAM FILES (X86)\MICROSOFT VISUAL STUDIO 11.0\VC\INCLUDE\STDEXCEPT
D:\PROGRAM FILES (X86)\MICROSOFT VISUAL STUDIO 11.0\VC\INCLUDE\EXCEPTION
D:\PROGRAM FILES (X86)\MICROSOFT VISUAL STUDIO 11.0\VC\INCLUDE\XSTDDEF
D:\PROGRAM FILES (X86)\MICROSOFT VISUAL STUDIO 11.0\VC\INCLUDE\CSTDDEF
D:\PROGRAM FILES (X86)\MICROSOFT VISUAL STUDIO 11.0\VC\INCLUDE\STDDEF.H
D:\PROGRAM FILES (X86)\MICROSOFT VISUAL STUDIO 11.0\VC\INCLUDE\EH.H
D:\PROGRAM FILES (X86)\MICROSOFT VISUAL STUDIO 11.0\VC\INCLUDE\MALLOC.H
D:\PROGRAM FILES (X86)\MICROSOFT VISUAL STUDIO 11.0\VC\INCLUDE\XSTRING
D:\PROGRAM FILES (X86)\MICROSOFT VISUAL STUDIO 11.0\VC\INCLUDE\XMEMORY0
D:\PROGRAM FILES (X86)\MICROSOFT VISUAL STUDIO 11.0\VC\INCLUDE\LIMITS
D:\PROGRAM FILES (X86)\MICROSOFT VISUAL STUDIO 11.0\VC\INCLUDE\YMATH.H
D:\PROGRAM FILES (X86)\MICROSOFT VISUAL STUDIO 11.0\VC\INCLUDE\CFLOAT
D:\PROGRAM FILES (X86)\MICROSOFT VISUAL STUDIO 11.0\VC\INCLUDE\FLOAT.H
D:\PROGRAM FILES (X86)\MICROSOFT VISUAL STUDIO 11.0\VC\INCLUDE\CRTWRN.H
D:\PROGRAM FILES (X86)\MICROSOFT VISUAL STUDIO 11.0\VC\INCLUDE\CWCHAR
D:\PROGRAM FILES (X86)\MICROSOFT VISUAL STUDIO 11.0\VC\INCLUDE\WCHAR.H
D:\PROGRAM FILES (X86)\MICROSOFT VISUAL STUDIO 11.0\VC\INCLUDE\WTIME.INL
D:\PROGRAM FILES (X86)\MICROSOFT VISUAL STUDIO 11.0\VC\INCLUDE\NEW
D:\PROGRAM FILES (X86)\MICROSOFT VISUAL STUDIO 11.0\VC\INCLUDE\XUTILITY
D:\PROGRAM FILES (X86)\MICROSOFT VISUAL STUDIO 11.0\VC\INCLUDE\UTILITY
D:\PROGRAM FILES (X86)\MICROSOFT VISUAL STUDIO 11.0\VC\INCLUDE\IOSFWD
D:\PROGRAM FILES (X86)\MICROSOFT VISUAL STUDIO 11.0\VC\INCLUDE\CRTDBG.H
D:\PROGRAM FILES (X86)\MICROSOFT VISUAL STUDIO 11.0\VC\INCLUDE\TYPE_TRAITS
D:\PROGRAM FILES (X86)\MICROSOFT VISUAL STUDIO 11.0\VC\INCLUDE\XREFWRAP
D:\PROGRAM FILES (X86)\MICROSOFT VISUAL STUDIO 11.0\VC\INCLUDE\XATOMIC0.H
D:\PROGRAM FILES (X86)\MICROSOFT VISUAL STUDIO 11.0\VC\INCLUDE\INTRIN.H
D:\PROGRAM FILES (X86)\MICROSOFT VISUAL STUDIO 11.0\VC\INCLUDE\SETJMP.H
D:\PROGRAM FILES (X86)\MICROSOFT VISUAL STUDIO 11.0\VC\INCLUDE\IMMINTRIN.H
D:\PROGRAM FILES (X86)\MICROSOFT VISUAL STUDIO 11.0\VC\INCLUDE\WMMINTRIN.H
D:\PROGRAM FILES (X86)\MICROSOFT VISUAL STUDIO 11.0\VC\INCLUDE\NMMINTRIN.H
D:\PROGRAM FILES (X86)\MICROSOFT VISUAL STUDIO 11.0\VC\INCLUDE\SMMINTRIN.H
D:\PROGRAM FILES (X86)\MICROSOFT VISUAL STUDIO 11.0\VC\INCLUDE\TMMINTRIN.H
D:\PROGRAM FILES (X86)\MICROSOFT VISUAL STUDIO 11.0\VC\INCLUDE\PMMINTRIN.H
D:\PROGRAM FILES (X86)\MICROSOFT VISUAL STUDIO 11.0\VC\INCLUDE\EMMINTRIN.H
D:\PROGRAM FILES (X86)\MICROSOFT VISUAL STUDIO 11.0\VC\INCLUDE\XMMINTRIN.H
D:\PROGRAM FILES (X86)\MICROSOFT VISUAL STUDIO 11.0\VC\INCLUDE\MMINTRIN.H
D:\PROGRAM FILES (X86)\MICROSOFT VISUAL STUDIO 11.0\VC\INCLUDE\AMMINTRIN.H
D:\PROGRAM FILES (X86)\MICROSOFT VISUAL STUDIO 11.0\VC\INCLUDE\MM3DNOW.H
D:\PROGRAM FILES (X86)\MICROSOFT VISUAL STUDIO 11.0\VC\INCLUDE\TYPEINFO
D:\PROGRAM FILES (X86)\MICROSOFT VISUAL STUDIO 11.0\VC\INCLUDE\XLOCINFO
D:\PROGRAM FILES (X86)\MICROSOFT VISUAL STUDIO 11.0\VC\INCLUDE\XLOCINFO.H
D:\PROGRAM FILES (X86)\MICROSOFT VISUAL STUDIO 11.0\VC\INCLUDE\CTYPE.H
D:\PROGRAM FILES (X86)\MICROSOFT VISUAL STUDIO 11.0\VC\INCLUDE\LOCALE.H
D:\PROGRAM FILES (X86)\MICROSOFT VISUAL STUDIO 11.0\VC\INCLUDE\XDEBUG
D:\PROGRAM FILES (X86)\MICROSOFT VISUAL STUDIO 11.0\VC\INCLUDE\XMEMORY
D:\PROGRAM FILES (X86)\MICROSOFT VISUAL STUDIO 11.0\VC\INCLUDE\XFACET
D:\PROGRAM FILES (X86)\MICROSOFT VISUAL STUDIO 11.0\VC\INCLUDE\SYSTEM_ERROR
D:\PROGRAM FILES (X86)\MICROSOFT VISUAL STUDIO 11.0\VC\INCLUDE\CERRNO
D:\PROGRAM FILES (X86)\MICROSOFT VISUAL STUDIO 11.0\VC\INCLUDE\ERRNO.H
D:\PROGRAM FILES (X86)\MICROSOFT VISUAL STUDIO 11.0\VC\INCLUDE\SHARE.H
D:\PROGRAM FILES (X86)\MICROSOFT VISUAL STUDIO 11.0\VC\INCLUDE\CONIO.H
D:\PROGRAM FILES (X86)\MICROSOFT VISUAL STUDIO 11.0\VC\INCLUDE\TIME.H
D:\PROGRAM FILES (X86)\MICROSOFT VISUAL STUDIO 11.0\VC\INCLUDE\TIME.INL
D:\PROGRAM FILES (X86)\MICROSOFT VISUAL STUDIO 11.0\VC\BIN\1028\CLUI.DLL
C:\WINDOWS\GLOBALIZATION\SORTING\SORTDEFAULT.NLS
C:\WINDOWS\SYSTEM32\TZRES.DLL
D:\PROGRAM FILES (X86)\MICROSOFT VISUAL STUDIO 11.0\COMMON7\IDE\MSPDBSRV.EXE
